# Blablabla
# CMOS dim: 1080x1920 (HxW)
sweep_wait_time 1000        # ms
window1 10 10 1918 1078	# left top right bottom
window2 10 10 1918 1078
integ_time1 30
integ_time2 30
binx 1    # bip bip bip
biny 1
frames_per_trigger 1

wait 1000	# unit: ms

#repeat 5
#  img 120_000 121_000
  
repeat 2
  img 87_500 89_000 20 87_500 89_000 20
  
#img 87_000 87_000
#wait 1000
#img 87_100 87_000
#wait 1000
#img 87_200 87_000
#wait 1000
#img 87_300 87_000
#wait 1000
#img 87_400 87_000
#wait 1000
#img 87_500 87_000
#wait 1000
#img 87_600 87_000
#wait 1000
#img 87_700 87_000
#wait 1000
#img 87_800 87_000
#wait 1000
#img 87_900 87_000
#wait 1000
#img 88_000 87_000
#wait 1000

#repeat 5
#  bkg
#wait 5000
#img+bkg 80_000 85_000 500 90_000 95_000 500
#wait 1000
#img+bkg 80_000 105_000 100 80_000 105_000 100
#wait 1000

